##############################
# Technologist Faction
##############################

technologist = {
	election_header = "GFX_faction_header_yellow"
	guiding_ethic = ethic_materialist
	
	unique = yes
	support_multiplier = 1
	
	resources = {
		category = pop_factions
		produces = {
			influence = 2
		}
	}

	is_potential = {
		years_passed > 10
		has_encountered_other_species = yes
		NOT = { has_ethic = ethic_gestalt_consciousness }
		NOT = { has_country_flag = suppress_vanilla_factions }
		count_owned_pop = {
			count >= 5
			limit = {
				has_ethic = ethic_materialist
			}
		}
	}

	
	parameters = {
		empire = {
			type = country
			valid_objects = {
				is_same_value = root
			}
		}
	}
	
	can_join_pre_triggers = {
		is_enslaved = no
		is_being_purged = no
	}

	can_join_faction = {
		is_shackled_robot = no
		has_culture_shock = no
		NOT = { has_trait = trait_nerve_stapled }
		NOR = {
			has_ethic = ethic_spiritualist
			has_ethic = ethic_fanatic_spiritualist
		}
		OR = {
			has_ethic = ethic_materialist
			has_ethic = ethic_fanatic_materialist
			is_robot_pop = yes
		}
	}	
	
	attraction = {
		base = 150
		
		modifier = {
			factor = 1.25
			exists = from
			from = {
				exists = leader
				leader = { leader_class = ruler }
			}
		}
		
		modifier = {
			factor = 0.75
			exists = from
			from = {
				NOT = { exists = leader }
			}
		}
		
		modifier = {
			factor = 2.0
			is_robot_pop = yes
		}
	}
	
	leader = {
		base = 100
		
		modifier = {
			factor = 0.0
			is_event_leader = yes
		}
	}
	
	demand = {
		title = "FACTION_OUTRAGED_GC"
		unfulfilled_title = "FACTION_OUTRAGED_GC"
		desc = "FACTION_OUTRAGED_GC_DESC"

		fulfilled_effect = -20
		unfulfilled_effect = -0.001

		potential = {
			exists = owner
			owner = {
				has_country_flag = faction_materialist_outraged_gc
			}
		}

		trigger = {
			owner = {
				has_country_flag = faction_materialist_outraged_gc
			}
		}
	}	
	
	
	demand = {
		title = "ACADEMIC_PRIVILEGES"
		unfulfilled_title = "ACADEMIC_PRIVILEGES"
		desc = "ACADEMIC_PRIVILEGES_DESC"

		fulfilled_effect = 10

		potential = { 
			exists = owner
			owner = { has_valid_civic = civic_science_directorate }
		}

		trigger = {
			owner = {
				OR = {
					any_owned_pop = {
						has_living_standard = { type = living_standard_academic_privilege }
					}					
				}
			}
		}
	}	
	
	
	demand = {
		title = "GENETIC_SUPERIORITY"
		unfulfilled_title = "NO_GENETIC_SUPERIORITY"
		desc = "GENETIC_SUPERIORITY_DESC"

		fulfilled_effect = 15
		unfulfilled_effect = -2

		potential = {
			exists = owner
			owner = {  has_valid_civic = civic_symbiotic_race  }
		}

		trigger = {
			owner = {
					has_ascension_perk = ap_engineered_evolution
			}
		}
	}		

	

	demand = {
		title = "TECHNOLOGIST_ROBOTS_ALLOWED"
		unfulfilled_title = "TECHNOLOGIST_ROBOTS_BANNED"
		desc = "TECHNOLOGIST_ROBOTS_ALLOWED_DESC"

		fulfilled_effect = 10
		unfulfilled_effect = -30

		potential = {
			exists = owner
		}

		trigger = {
			owner = {
				NOR = {
					has_policy_flag = robots_outlawed
					has_policy_flag = ai_outlawed
				}
			}
		}
	}

	demand = {
		title = "TECHNOLOGIST_TECH_LEAP"
		unfulfilled_title = "TECHNOLOGIST_TECH_LAG"
		desc = "TECHNOLOGIST_TECH_LEAP_DESC"

		fulfilled_effect = 10
		unfulfilled_effect = -20

		potential = {
			exists = owner
			owner = {
				any_relation = {
					has_communications = root.owner
					is_country_type = default
					NOT = { has_government = gov_successor_khanate }
				}
				NOR = {
					has_country_flag = primitives_can_into_space
					is_subject = yes
				}
			}
		}

		trigger = {
			owner = {
				NOT = {
					any_relation = {
						has_communications = root.owner
						is_country_type = default
						NOT = { has_government = gov_successor_khanate }
						relative_power = {
							who = root.owner
							category = technology
							value > equivalent
						}
					}
				}
			}
		}
	}

	demand = {
		title = "TECHNOLOGIST_RESEARCH_TREATIES"
		unfulfilled_title = "TECHNOLOGIST_FEW_RESEARCH_TREATIES"
		desc = "TECHNOLOGIST_RESEARCH_TREATIES_DESC"

		fulfilled_effect = 10
		unfulfilled_effect = -0.001

		potential = {
			exists = owner
			owner = {
				num_communications > 2
			}
		}

		trigger = {
			owner = {
				OR = {
					AND = {
						has_federation = yes
						federation = {
							has_federation_perk = research_federation_passive
						}
					}
					count_country = {
						count > 2
						limit = {
							exists = this
							root.owner = { has_research_agreement = prev }
						}
					}
				}
			}
		}
	}

	demand = {
		title = "TECHNOLOGIST_NO_SYNTH_ENVY"
		unfulfilled_title = "TECHNOLOGIST_SYNTH_ENVY"
		desc = "TECHNOLOGIST_NO_SYNTH_ENVY_DESC"

		unfulfilled_effect = -10
		fulfilled_effect = 0.001

		potential = {
			exists = owner
			owner = {
				NOT = { has_ascension_perk = ap_synthetic_evolution }
				any_relation = {
					has_communications = root.owner
					any_owned_pop = {
						OR = {
							pop_has_trait = trait_mechanical
							pop_has_trait = trait_cybernetic
						}
					}
				}
			}
		}

		trigger = {
			owner = {
				any_owned_pop = {
					OR = {
						pop_has_trait = trait_mechanical
						pop_has_trait = trait_cybernetic
					}
				}
			}
		}
	}
	
	

	on_create = {
		pop_faction_event = { id = factions.1 }
	}

	demand = {
		title = "TECHNOLOGIST_SECRET_KNOWLEDGE"
		unfulfilled_title = "TECHNOLOGIST_NO_SECRET_KNOWLEDGE"
		desc = "TECHNOLOGIST_SECRET_KNOWLEDGE_DESC"

		fulfilled_effect = 10
		unfulfilled_effect = -0.001

		potential = {
			exists = owner
			owner = {
				OR = {
					has_modifier = fallen_empire_gift_databanks
					has_modifier = curator_insight
				}
			}
		}

		trigger = {
			owner = {
				OR = {
					has_modifier = fallen_empire_gift_databanks
					has_modifier = curator_insight
				}
			}
		}
	}
	
	demand = {
		title = "TECHNOLOGIST_ARCANA"
		unfulfilled_title = "TECHNOLOGIST_NO_ARCANA"
		desc = "TECHNOLOGIST_ARCANA_DESC"

		fulfilled_effect = 5
		unfulfilled_effect = -0.001

		potential = {
			exists = owner
			owner = {
				OR = {
					has_modifier = arcane_deciphering_cooldown
					has_modifier = arcane_insight
				}
			}
		}

		trigger = {
			owner = {
				OR = {
					has_modifier = arcane_deciphering_cooldown
					has_modifier = arcane_insight
				}
			}
		}
	}

	demand = {
		title = "TECHNOLOGIST_PRECURSOR_SECRETS"
		unfulfilled_title = "TECHNOLOGIST_NO_PRECURSOR_SECRETS"
		desc = "TECHNOLOGIST_PRECURSOR_SECRETS_DESC"

		fulfilled_effect = 5
		unfulfilled_effect = -0.001

		potential = {
			exists = owner
			owner = {
				OR = {
					has_modifier = artifact_cybrex_research_completed
					has_modifier = artifact_irassian_research_completed
					has_modifier = artifact_league_research_completed
					has_modifier = artifact_vultaum_research_completed_suppressed
					has_modifier = artifact_vultaum_research_completed_public
					has_country_flag = artifact_yuht_research_completed
				}
			}
		}

		trigger = {
			owner = {
				OR = {
					has_modifier = artifact_cybrex_research_completed
					has_modifier = artifact_irassian_research_completed
					has_modifier = artifact_league_research_completed
					has_modifier = artifact_vultaum_research_completed_suppressed
					has_modifier = artifact_vultaum_research_completed_public
					has_country_flag = artifact_yuht_research_completed
				}
			}
		}
	}

	demand = {
		title = "COOPERATIVE_DIPLO_STANCE"
		unfulfilled_title = "COOPERATIVE_DIPLO_STANCE"
		desc = "COOPERATIVE_DIPLO_STANCE_DESC"

		fulfilled_effect = 5
		unfulfilled_effect = -0.001

		potential = {
			exists = owner
			owner = {
				is_homicidal = no
				is_country_type = default
				has_policy_flag = diplo_stance_cooperative
			}
		}

		trigger = {
			owner = {
				has_policy_flag = diplo_stance_cooperative
			}
		}
	}	

	on_destroy = {
		if = {
			limit = {
				has_modifier = promoted_materialist
			}
			remove_modifier = promoted_materialist
		}
		if = {
			limit = {
				has_modifier = suppressed_materialist
			}
			remove_modifier = suppressed_materialist
		}
	}
	
	actions = {
		embrace_faction = {
			title = "EMBRACE_FACTION"
			description = "EMBRACE_FACTION_DESC"
			
			cost = {
				influence = 500
			}
			
			potential = {
				exists = owner
				owner = {
					OR = {
						is_subject = no
						NOT = { is_subject_type = dominion }
					}
				}
			}
			
			valid = {
				custom_tooltip = {
					fail_text = EMBRACE_FACTION_COOLDOWN
					parameter:empire = {
						NOT = { has_modifier = embraced_faction_timer }
					}
				}
				support > 0.20
				parameter:empire = {
					NOT = { has_ethic = "ethic_fanatic_materialist" }
				}
			}

			effect = {
				add_modifier = { modifier = embraced_faction days = 3600 }			
				parameter:empire = {
					shift_ethic = ethic_materialist
					hidden_effect = {
						add_modifier = { modifier = embraced_faction_timer days = 3600 }
						every_pop_faction = {
							limit = { NOT = { is_same_value = root } }
							add_modifier = { modifier = embraced_another_faction days = 3600 }
						}
					}
				}
				hidden_effect = {
					save_event_target_as = TargetFaction
					parameter:empire = {
						every_relation = {
							limit = {
								is_ai = no
								is_country_type = default			
								has_communications = prev
							}
							country_event = { id = factions.2000 }
						}
					}				
				}				
			}
			
			ai_weight = {
				base = 1
				modifier = {
					factor = 0
					support < 0.50
					owner = {
						has_ethic = ethic_materialist
					}
				}
				modifier = {
					factor = 0
					owner = { has_valid_civic = civic_fanatic_purifiers }
				}				
				modifier = {
					factor = 0
					NOT = { 
						owner = {
							exists = ruler
							ruler = {
								leader_of_faction = technologist
							}
						}
					}
				}
				modifier = {
					factor = 0
					owner = {
						count_pop_faction = {
							count < 4
						}					
					}
				}				
			}
		}
		promote_faction = {
			title = "PROMOTE_FACTION"
			description = "PROMOTE_FACTION_DESC"
			
			potential = {
				exists = owner
				parameter:empire = { 			
					NOR = { 
						has_modifier = suppressed_materialist
						has_modifier = promoted_materialist 
					}
				}
			}

			effect = {
				parameter:empire = {
					add_modifier = { modifier = promoted_materialist days = -1 }
				}
			}
			
			ai_weight = {
				base = 0
			}
		}
		cancel_promote_faction = {
			title = "CANCEL_PROMOTE_FACTION"
			description = "CANCEL_PROMOTE_FACTION_DESC"
			
			potential = {
				exists = owner
				parameter:empire = { 
					has_modifier = promoted_materialist
				}
			}

			effect = {
				parameter:empire = {
					remove_modifier = promoted_materialist
				}
			}
			
			ai_weight = {
				base = 0
			}
		}		
		suppress_faction = {
			title = "SUPPRESS_FACTION"
			description = "SUPPRESS_FACTION_DESC"
			
			potential = {
				exists = owner
				parameter:empire = { 
					NOR = { 
						has_modifier = suppressed_materialist
						has_modifier = promoted_materialist 
					}
				}
			}

			effect = {
				add_modifier = { modifier = suppressed_faction days = -1 }
				parameter:empire = {
					add_modifier = { modifier = suppressed_materialist days = -1 }
				}
			}
			
			ai_weight = {
				base = 0
			}
		}
		cancel_suppress_faction = {
			title = "CANCEL_SUPPRESS_FACTION"
			description = "CANCEL_SUPPRESS_FACTION_DESC"
			
			potential = {
				exists = owner
				parameter:empire = { 
					has_modifier = suppressed_materialist
				}
			}

			effect = {
				remove_modifier = suppressed_faction
				parameter:empire = {
					remove_modifier = suppressed_materialist
				}
			}
			
			ai_weight = {
				base = 0
			}
		}	
	}
}