# This is called in initializers for all standard empires, before the empire actually exists


generate_start_pops = {
	if = {
		limit = {
			owner = {
				OR = {
					has_origin = origin_syncretic_evolution
					has_valid_civic = civic_machine_servitor
					has_valid_civic = civic_machine_assimilator
					has_valid_civic = civic_symbiotic_race
					has_valid_civic = civic_slave_race
					has_origin = origin_necrophage
				}
			}
		}

		if = { limit = { last_created_species = { is_species_class = MACHINE } }
			modify_species = {
				species = last_created_species
				add_trait = trait_machine_unit
				add_traits_at_start_of_list = yes
			}
			last_created_species = { save_event_target_as = last_created_species }
		}

		if = {
			limit = { owner = { OR = { has_origin = origin_syncretic_evolution   has_origin = origin_necrophage  has_valid_civic = civic_symbiotic_race  has_valid_civic = civic_slave_race  }  } }

			last_created_species = {
				set_species_flag = syncretic_species@root.owner
				if = {
					limit = {
						prev.owner = {
							OR = { has_origin = origin_syncretic_evolution   has_valid_civic = civic_symbiotic_race  has_valid_civic = civic_slave_race  }
						}
					}
					set_citizenship_type = {
						country = root.owner
						type = citizenship_slavery
					}
				}
			}
			
			if = {
				limit = {
					owner = {
						has_origin = origin_necrophage
						has_valid_civic = civic_fanatic_purifiers
					}
				}
				while = {
					count = 9
					create_pop = {
						species = last_created_species
						ethos = random
					}
				}
			}
			else = {
				while = {
					count = 12
					create_pop = {
						species = last_created_species
						ethos = random
					}
				}
			}			
		}

		if = {
			limit = { owner = { has_valid_civic = civic_machine_servitor } }
			last_created_species = {
				set_citizenship_type = {
					country = root.owner
					type = citizenship_limited
				}
				set_living_standard = {
					country = root.owner
					type = living_standard_organic_trophy
				}
			}
			while = {
				count = 5
				create_pop = {
					species = last_created_species
					ethos = random
				}
				last_created_pop = {
					clear_ethos = yes
				}
			}
		}

		if = {
			limit = { owner = { has_valid_civic = civic_machine_assimilator } }
			last_created_species = {
				set_citizenship_type = {
					country = root.owner
					type = citizenship_full_machine
				}
				set_living_standard = {
					country = root.owner
					type = living_standard_hive_mind
				}
			}
			while = {
				count = 10
				create_pop = {
					species = last_created_species
					ethos = random
				}
				last_created_pop = {
					clear_ethos = yes
				}
			}
		}
	}

	if = {
		limit = { owner = { has_valid_civic = civic_machine_cult }	}
		owner = { create_built_robot_species = yes }
		while = {
			count = 4
			create_pop = {
				species = last_created_species
			}
		}
		add_building = building_mecha_monastery
		add_building = building_robot_assembly_plant
		while = {
			limit = { num_pops < 30 }
			create_pop = {
				species = owner_main_species
				ethos = random
			}
		}
	}

	if = {
        limit = { owner = { or = { has_origin = origin_mechanists  } } }
		owner = { create_built_robot_species = yes }
		while = {
			count = 8
			create_pop = {
				species = last_created_species
			}
		}

		add_building = building_robot_assembly_plant
		add_district_and_planet_size_if_needed_effect = {
			district = district_generator
		}
		while = {
			limit = { num_pops < 27 }
			create_pop = {
				species = owner_main_species
				ethos = random
			}
		}
	}
	
	if = {
		limit = {
			owner = {
				has_origin = origin_necrophage
				NOT = { has_civic = civic_fanatic_purifiers } #purges them instead
			}
		}
		add_building = building_necrophage_elevation_chamber
	}
	
	if = {
		limit = { owner = { is_hive_empire = yes } }
		while = {
			limit = { num_pops < 34 }
			create_pop = {
				species = owner_main_species
				ethos = random
			}
		}
	}
	if = {
		limit = { owner = { has_valid_civic = civic_machine_servitor } }
		while = {
			limit = { num_pops < 33 }
			create_pop = {
				species = owner_main_species
				ethos = random
			}
		}
	}
	if = {
		limit = { owner = { is_machine_empire = yes } }
		while = {
			limit = { num_pops < 29 }
			create_pop = {
				species = owner_main_species
				ethos = random
			}
		}
	}
	if = {
		limit = { owner = { is_megacorp = yes} }
		while = {
			limit = { num_pops < 30 }
			create_pop = {
				species = owner_main_species
				ethos = random
			}
		}
	}
	if = {
		limit = { owner = { is_regular_empire = yes } }
		while = {
			limit = { num_pops < 28 }
			create_pop = {
				species = owner_main_species
				ethos = random
			}
		}
	}
	
	if = {
		limit = { owner = { has_origin = origin_necrophage } }
		while = { #to make them start without resource deficits
			count = 2
			create_pop = {
				species = owner_main_species
				ethos = random
			}
		}
	}
	
	if = {
		limit = {
			owner = { has_origin = origin_default }
		}
		while = {
			count = 4
			create_pop = {
				species = owner_main_species
				ethos = random
			}
		}
	}
}
